{"count":21072,"next":"https://api.octopus.energy/v1/gas-meter-points/0123456789/meters/0123456789/consumption/?page=2","previous":null,"results":[{"consumption":0.195,"interval_start":"2020-11-28T23:00:00Z","interval_end":"2020-11-28T23:30:00Z"},{"consumption":0.193,"interval_start":"2020-11-28T22:30:00Z","interval_end":"2020-11-28T23:00:00Z"},{"consumption":0.246,"interval_start":"2020-11-28T22:00:00Z","interval_end":"2020-11-28T22:30:00Z"},{"consumption":0.3,"interval_start":"2020-11-28T21:30:00Z","interval_end":"2020-11-28T22:00:00Z"},{"consumption":0.279,"interval_start":"2020-11-28T21:00:00Z","interval_end":"2020-11-28T21:30:00Z"},{"consumption":0.282,"interval_start":"2020-11-28T20:30:00Z","interval_end":"2020-11-28T21:00:00Z"},{"consumption":0.301,"interval_start":"2020-11-28T20:00:00Z","interval_end":"2020-11-28T20:30:00Z"},{"consumption":0.506,"interval_start":"2020-11-28T19:30:00Z","interval_end":"2020-11-28T20:00:00Z"},{"consumption":0.656,"interval_start":"2020-11-28T19:00:00Z","interval_end":"2020-11-28T19:30:00Z"},{"consumption":0.206,"interval_start":"2020-11-28T18:30:00Z","interval_end":"2020-11-28T19:00:00Z"},{"consumption":0.206,"interval_start":"2020-11-28T18:00:00Z","interval_end":"2020-11-28T18:30:00Z"},{"consumption":0.188,"interval_start":"2020-11-28T17:30:00Z","interval_end":"2020-11-28T18:00:00Z"},{"consumption":0.251,"interval_start":"2020-11-28T17:00:00Z","interval_end":"2020-11-28T17:30:00Z"},{"consumption":0.262,"interval_start":"2020-11-28T16:30:00Z","interval_end":"2020-11-28T17:00:00Z"},{"consumption":0.282,"interval_start":"2020-11-28T16:00:00Z","interval_end":"2020-11-28T16:30:00Z"},{"consumption":0.24,"interval_start":"2020-11-28T15:30:00Z","interval_end":"2020-11-28T16:00:00Z"},{"consumption":0.28,"interval_start":"2020-11-28T15:00:00Z","interval_end":"2020-11-28T15:30:00Z"},{"consumption":0.275,"interval_start":"2020-11-28T14:30:00Z","interval_end":"2020-11-28T15:00:00Z"},{"consumption":0.408,"interval_start":"2020-11-28T14:00:00Z","interval_end":"2020-11-28T14:30:00Z"},{"consumption":0.276,"interval_start":"2020-11-28T13:30:00Z","interval_end":"2020-11-28T14:00:00Z"},{"consumption":0.268,"interval_start":"2020-11-28T13:00:00Z","interval_end":"2020-11-28T13:30:00Z"},{"consumption":0.346,"interval_start":"2020-11-28T12:30:00Z","interval_end":"2020-11-28T13:00:00Z"},{"consumption":0.297,"interval_start":"2020-11-28T12:00:00Z","interval_end":"2020-11-28T12:30:00Z"},{"consumption":0.916,"interval_start":"2020-11-28T11:30:00Z","interval_end":"2020-11-28T12:00:00Z"},{"consumption":0.276,"interval_start":"2020-11-28T11:00:00Z","interval_end":"2020-11-28T11:30:00Z"},{"consumption":0.285,"interval_start":"2020-11-28T10:30:00Z","interval_end":"2020-11-28T11:00:00Z"},{"consumption":0.284,"interval_start":"2020-11-28T10:00:00Z","interval_end":"2020-11-28T10:30:00Z"},{"consumption":0.344,"interval_start":"2020-11-28T09:30:00Z","interval_end":"2020-11-28T10:00:00Z"},{"consumption":0.187,"interval_start":"2020-11-28T09:00:00Z","interval_end":"2020-11-28T09:30:00Z"},{"consumption":0.198,"interval_start":"2020-11-28T08:30:00Z","interval_end":"2020-11-28T09:00:00Z"},{"consumption":0.198,"interval_start":"2020-11-28T08:00:00Z","interval_end":"2020-11-28T08:30:00Z"},{"consumption":0.199,"interval_start":"2020-11-28T07:30:00Z","interval_end":"2020-11-28T08:00:00Z"},{"consumption":0.208,"interval_start":"2020-11-28T07:00:00Z","interval_end":"2020-11-28T07:30:00Z"},{"consumption":0.193,"interval_start":"2020-11-28T06:30:00Z","interval_end":"2020-11-28T07:00:00Z"},{"consumption":0.192,"interval_start":"2020-11-28T06:00:00Z","interval_end":"2020-11-28T06:30:00Z"},{"consumption":0.195,"interval_start":"2020-11-28T05:30:00Z","interval_end":"2020-11-28T06:00:00Z"},{"consumption":0.2,"interval_start":"2020-11-28T05:00:00Z","interval_end":"2020-11-28T05:30:00Z"},{"consumption":0.206,"interval_start":"2020-11-28T04:30:00Z","interval_end":"2020-11-28T05:00:00Z"},{"consumption":0.209,"interval_start":"2020-11-28T04:00:00Z","interval_end":"2020-11-28T04:30:00Z"},{"consumption":0.196,"interval_start":"2020-11-28T03:30:00Z","interval_end":"2020-11-28T04:00:00Z"},{"consumption":0.208,"interval_start":"2020-11-28T03:00:00Z","interval_end":"2020-11-28T03:30:00Z"},{"consumption":0.198,"interval_start":"2020-11-28T02:30:00Z","interval_end":"2020-11-28T03:00:00Z"},{"consumption":0.205,"interval_start":"2020-11-28T02:00:00Z","interval_end":"2020-11-28T02:30:00Z"},{"consumption":0.197,"interval_start":"2020-11-28T01:30:00Z","interval_end":"2020-11-28T02:00:00Z"},{"consumption":0.264,"interval_start":"2020-11-28T01:00:00Z","interval_end":"2020-11-28T01:30:00Z"},{"consumption":0.274,"interval_start":"2020-11-28T00:30:00Z","interval_end":"2020-11-28T01:00:00Z"},{"consumption":0.271,"interval_start":"2020-11-28T00:00:00Z","interval_end":"2020-11-28T00:30:00Z"},{"consumption":0.273,"interval_start":"2020-11-27T23:30:00Z","interval_end":"2020-11-28T00:00:00Z"},{"consumption":0.246,"interval_start":"2020-11-27T23:00:00Z","interval_end":"2020-11-27T23:30:00Z"},{"consumption":0.214,"interval_start":"2020-11-27T22:30:00Z","interval_end":"2020-11-27T23:00:00Z"},{"consumption":0.3,"interval_start":"2020-11-27T22:00:00Z","interval_end":"2020-11-27T22:30:00Z"},{"consumption":0.298,"interval_start":"2020-11-27T21:30:00Z","interval_end":"2020-11-27T22:00:00Z"},{"consumption":0.307,"interval_start":"2020-11-27T21:00:00Z","interval_end":"2020-11-27T21:30:00Z"},{"consumption":0.297,"interval_start":"2020-11-27T20:30:00Z","interval_end":"2020-11-27T21:00:00Z"},{"consumption":0.306,"interval_start":"2020-11-27T20:00:00Z","interval_end":"2020-11-27T20:30:00Z"},{"consumption":0.434,"interval_start":"2020-11-27T19:30:00Z","interval_end":"2020-11-27T20:00:00Z"},{"consumption":0.246,"interval_start":"2020-11-27T19:00:00Z","interval_end":"2020-11-27T19:30:00Z"},{"consumption":0.264,"interval_start":"2020-11-27T18:30:00Z","interval_end":"2020-11-27T19:00:00Z"},{"consumption":0.306,"interval_start":"2020-11-27T18:00:00Z","interval_end":"2020-11-27T18:30:00Z"},{"consumption":0.414,"interval_start":"2020-11-27T17:30:00Z","interval_end":"2020-11-27T18:00:00Z"},{"consumption":0.418,"interval_start":"2020-11-27T17:00:00Z","interval_end":"2020-11-27T17:30:00Z"},{"consumption":0.409,"interval_start":"2020-11-27T16:30:00Z","interval_end":"2020-11-27T17:00:00Z"},{"consumption":0.386,"interval_start":"2020-11-27T16:00:00Z","interval_end":"2020-11-27T16:30:00Z"},{"consumption":0.273,"interval_start":"2020-11-27T15:30:00Z","interval_end":"2020-11-27T16:00:00Z"},{"consumption":1.007,"interval_start":"2020-11-27T15:00:00Z","interval_end":"2020-11-27T15:30:00Z"},{"consumption":0.248,"interval_start":"2020-11-27T14:30:00Z","interval_end":"2020-11-27T15:00:00Z"},{"consumption":0.246,"interval_start":"2020-11-27T14:00:00Z","interval_end":"2020-11-27T14:30:00Z"},{"consumption":0.319,"interval_start":"2020-11-27T13:30:00Z","interval_end":"2020-11-27T14:00:00Z"},{"consumption":0.383,"interval_start":"2020-11-27T13:00:00Z","interval_end":"2020-11-27T13:30:00Z"},{"consumption":0.395,"interval_start":"2020-11-27T12:30:00Z","interval_end":"2020-11-27T13:00:00Z"},{"consumption":0.334,"interval_start":"2020-11-27T12:00:00Z","interval_end":"2020-11-27T12:30:00Z"},{"consumption":0.242,"interval_start":"2020-11-27T11:30:00Z","interval_end":"2020-11-27T12:00:00Z"},{"consumption":0.692,"interval_start":"2020-11-27T11:00:00Z","interval_end":"2020-11-27T11:30:00Z"},{"consumption":0.482,"interval_start":"2020-11-27T10:30:00Z","interval_end":"2020-11-27T11:00:00Z"},{"consumption":0.221,"interval_start":"2020-11-27T10:00:00Z","interval_end":"2020-11-27T10:30:00Z"},{"consumption":0.224,"interval_start":"2020-11-27T09:30:00Z","interval_end":"2020-11-27T10:00:00Z"},{"consumption":0.183,"interval_start":"2020-11-27T09:00:00Z","interval_end":"2020-11-27T09:30:00Z"},{"consumption":0.182,"interval_start":"2020-11-27T08:30:00Z","interval_end":"2020-11-27T09:00:00Z"},{"consumption":0.201,"interval_start":"2020-11-27T08:00:00Z","interval_end":"2020-11-27T08:30:00Z"},{"consumption":0.193,"interval_start":"2020-11-27T07:30:00Z","interval_end":"2020-11-27T08:00:00Z"},{"consumption":0.295,"interval_start":"2020-11-27T07:00:00Z","interval_end":"2020-11-27T07:30:00Z"},{"consumption":0.188,"interval_start":"2020-11-27T06:30:00Z","interval_end":"2020-11-27T07:00:00Z"},{"consumption":0.21,"interval_start":"2020-11-27T06:00:00Z","interval_end":"2020-11-27T06:30:00Z"},{"consumption":0.194,"interval_start":"2020-11-27T05:30:00Z","interval_end":"2020-11-27T06:00:00Z"},{"consumption":0.193,"interval_start":"2020-11-27T05:00:00Z","interval_end":"2020-11-27T05:30:00Z"},{"consumption":0.2,"interval_start":"2020-11-27T04:30:00Z","interval_end":"2020-11-27T05:00:00Z"},{"consumption":0.203,"interval_start":"2020-11-27T04:00:00Z","interval_end":"2020-11-27T04:30:00Z"},{"consumption":0.198,"interval_start":"2020-11-27T03:30:00Z","interval_end":"2020-11-27T04:00:00Z"},{"consumption":0.194,"interval_start":"2020-11-27T03:00:00Z","interval_end":"2020-11-27T03:30:00Z"},{"consumption":0.2,"interval_start":"2020-11-27T02:30:00Z","interval_end":"2020-11-27T03:00:00Z"},{"consumption":0.187,"interval_start":"2020-11-27T02:00:00Z","interval_end":"2020-11-27T02:30:00Z"},{"consumption":0.19,"interval_start":"2020-11-27T01:30:00Z","interval_end":"2020-11-27T02:00:00Z"},{"consumption":0.18,"interval_start":"2020-11-27T01:00:00Z","interval_end":"2020-11-27T01:30:00Z"},{"consumption":0.187,"interval_start":"2020-11-27T00:30:00Z","interval_end":"2020-11-27T01:00:00Z"},{"consumption":0.185,"interval_start":"2020-11-27T00:00:00Z","interval_end":"2020-11-27T00:30:00Z"},{"consumption":0.184,"interval_start":"2020-11-26T23:30:00Z","interval_end":"2020-11-27T00:00:00Z"},{"consumption":0.188,"interval_start":"2020-11-26T23:00:00Z","interval_end":"2020-11-26T23:30:00Z"},{"consumption":0.181,"interval_start":"2020-11-26T22:30:00Z","interval_end":"2020-11-26T23:00:00Z"},{"consumption":0.219,"interval_start":"2020-11-26T22:00:00Z","interval_end":"2020-11-26T22:30:00Z"},{"consumption":0.288,"interval_start":"2020-11-26T21:30:00Z","interval_end":"2020-11-26T22:00:00Z"}]}